{
  "Description": "Admin token",
  "SecretID": "{{ admin_token }}",
  "Policies": [
    {
      "ID":  "00000000-0000-0000-0000-000000000001"
    },
    {
      "Name": "global-management"
    }
  ],
  "Local": false
}
